\relax 
\providecommand\hyper@newdestlabel[2]{}
\providecommand\HyperFirstAtBeginDocument{\AtBeginDocument}
\HyperFirstAtBeginDocument{\ifx\hyper@anchor\@undefined
\global\let\oldcontentsline\contentsline
\gdef\contentsline#1#2#3#4{\oldcontentsline{#1}{#2}{#3}}
\global\let\oldnewlabel\newlabel
\gdef\newlabel#1#2{\newlabelxx{#1}#2}
\gdef\newlabelxx#1#2#3#4#5#6{\oldnewlabel{#1}{{#2}{#3}}}
\AtEndDocument{\ifx\hyper@anchor\@undefined
\let\contentsline\oldcontentsline
\let\newlabel\oldnewlabel
\fi}
\fi}
\global\let\hyper@last\relax 
\gdef\HyperFirstAtBeginDocument#1{#1}
\providecommand*\HyPL@Entry[1]{}
\citation{Evans2012}
\citation{AlFuqaha2015}
\citation{Ashton2000}
\citation{Xu2014}
\citation{He2014}
\citation{Schneiderman2015}
\citation{Colombo2013}
\citation{Kim2013}
\citation{Xu2014}
\HyPL@Entry{0<</P()>>}
\@writefile{toc}{\contentsline {section}{\numberline {I}Introduction}{}{section.1}}
\newlabel{Sec:Intro}{{I}{}{Introduction}{section.1}{}}
\@writefile{toc}{\contentsline {section}{\numberline {II}Vertical Silo \& IoT communication models}{}{section.2}}
\newlabel{Sec:VS_IoTmodels}{{II}{}{Vertical Silo \& IoT communication models}{section.2}{}}
\citation{RFC7452}
\citation{AlFuqaha2015}
\citation{OMI2014}
\citation{ODF2014}
\@writefile{lof}{\contentsline {figure}{\numberline {1}{\ignorespaces Vertical Silo problem \& IoT communication models (\emph  {cf.} RFC 7452)}}{}{figure.1}}
\newlabel{Fig:IoT:Silos_Comm_Models}{{1}{}{Vertical Silo problem \& IoT communication models (\emph {cf.} RFC 7452)}{figure.1}{}}
\@writefile{toc}{\contentsline {subsection}{\numberline {\unhbox \voidb@x \hbox {II-A}}The ``Vertical Silo" problem}{}{subsection.2.1}}
\newlabel{Sec:VS_IoTmodels:Challenge}{{\unhbox \voidb@x \hbox {II-A}}{}{The ``Vertical Silo" problem}{subsection.2.1}{}}
\@writefile{toc}{\contentsline {subsection}{\numberline {\unhbox \voidb@x \hbox {II-B}}IoT communication models}{}{subsection.2.2}}
\newlabel{Sec:VS_IoTmodels:Standards}{{\unhbox \voidb@x \hbox {II-B}}{}{IoT communication models}{subsection.2.2}{}}
\citation{Kiritsis2011}
\citation{FramlingEAAI2013}
\citation{FramlingIoT2014}
\citation{FramlingIoT2014}
\citation{OMI2014}
\citation{ODF2014}
\@writefile{toc}{\contentsline {section}{\numberline {III}O-MI \& O-DF: An efficiency ratio model}{}{section.3}}
\newlabel{Sec:OMI_ODF}{{III}{}{O-MI \& O-DF: An efficiency ratio model}{section.3}{}}
\@writefile{toc}{\contentsline {subsection}{\numberline {\unhbox \voidb@x \hbox {III-A}}O-MI \& O-DF: a high-level introduction}{}{subsection.3.1}}
\newlabel{Sec:OMI_ODF:Intro}{{\unhbox \voidb@x \hbox {III-A}}{}{O-MI \& O-DF: a high-level introduction}{subsection.3.1}{}}
\@writefile{lot}{\contentsline {table}{\numberline {I}{\ignorespaces Main Messaging Interfaces specified in the O-MI standard}}{}{table.1}}
\newlabel{Tab:OMI}{{I}{}{Main Messaging Interfaces specified in the O-MI standard}{table.1}{}}
\@writefile{toc}{\contentsline {subsection}{\numberline {\unhbox \voidb@x \hbox {III-B}}Efficiency ratio analytical model}{}{subsection.3.2}}
\newlabel{Sec:OMI_ODF:Analytic_model}{{\unhbox \voidb@x \hbox {III-B}}{}{Efficiency ratio analytical model}{subsection.3.2}{}}
\newlabel{Eq:Sreq}{{1}{}{Efficiency ratio analytical model}{equation.3.1}{}}
\@writefile{toc}{\contentsline {subsubsection}{\numberline {\unhbox \voidb@x \hbox {III-B}1}Application layer}{}{subsubsection.3.2.1}}
\newlabel{Eq:app}{{2}{}{Application layer}{equation.3.2}{}}
\@writefile{lof}{\contentsline {figure}{\numberline {2}{\ignorespaces O-MI/O-DF request/response message size}}{}{figure.2}}
\newlabel{Fig:Size}{{2}{}{O-MI/O-DF request/response message size}{figure.2}{}}
\@writefile{toc}{\contentsline {subsubsection}{\numberline {\unhbox \voidb@x \hbox {III-B}2}Lower layers}{}{subsubsection.3.2.2}}
\@writefile{toc}{\contentsline {subsubsection}{\numberline {\unhbox \voidb@x \hbox {III-B}3}Efficiency Ratio}{}{subsubsection.3.2.3}}
\newlabel{Eq:Lreq}{{3}{}{Efficiency Ratio}{equation.3.3}{}}
\@writefile{lof}{\contentsline {figure}{\numberline {3}{\ignorespaces PLM scenario highlighting how the SoS integration framework opens up business opportunities for creating more collaborative \& open service models}}{}{figure.3}}
\newlabel{Fig:CS_Scenario}{{3}{}{PLM scenario highlighting how the SoS integration framework opens up business opportunities for creating more collaborative \& open service models}{figure.3}{}}
\newlabel{Eq:TL}{{4}{}{Efficiency Ratio}{equation.3.4}{}}
\newlabel{Eq:Lack}{{5}{}{Efficiency Ratio}{equation.3.5}{}}
\newlabel{Eq:ER}{{6}{}{Efficiency Ratio}{equation.3.6}{}}
\@writefile{toc}{\contentsline {section}{\numberline {IV}Smart maintenance use case}{}{section.4}}
\newlabel{Sec:CS}{{IV}{}{Smart maintenance use case}{section.4}{}}
\@writefile{toc}{\contentsline {subsection}{\numberline {\unhbox \voidb@x \hbox {IV-A}}O-MI/O-DF-based smart maintenance services}{}{subsection.4.1}}
\newlabel{Sec:CS:Scenario}{{\unhbox \voidb@x \hbox {IV-A}}{}{O-MI/O-DF-based smart maintenance services}{subsection.4.1}{}}
\citation{Cassina2013}
\@writefile{lof}{\contentsline {figure}{\numberline {4}{\ignorespaces O-MI/ODF subscription request message (denoted by {\fontfamily  {pzd}\fontencoding  {U}\fontseries  {m}\fontshape  {n}\selectfont  \char 194} in Fig.\nobreakspace  {}\ref  {Fig:CS_Scenario}) and corresponding response (acknowledgment of the successful creation + subID)}}{}{figure.4}}
\newlabel{Fig:CS_SubReq}{{4}{}{O-MI/ODF subscription request message (denoted by \ding {194} in \figurename ~\ref {Fig:CS_Scenario}) and corresponding response (acknowledgment of the successful creation + subID)}{figure.4}{}}
\@writefile{toc}{\contentsline {subsection}{\numberline {\unhbox \voidb@x \hbox {IV-B}}Efficiency ratio analysis of the reference implementation}{}{subsection.4.2}}
\newlabel{Sec:CS:Deviation}{{\unhbox \voidb@x \hbox {IV-B}}{}{Efficiency ratio analysis of the reference implementation}{subsection.4.2}{}}
\citation{Han2014}
\newlabel{Fig:TL:TL}{{5(a)}{}{Subfigure 5(a)}{subfigure.5.1}{}}
\newlabel{sub@Fig:TL:TL}{{(a)}{}{Subfigure 5(a)\relax }{subfigure.5.1}{}}
\newlabel{Fig:TL:Deviation}{{5(b)}{}{Subfigure 5(b)}{subfigure.5.2}{}}
\newlabel{sub@Fig:TL:Deviation}{{(b)}{}{Subfigure 5(b)\relax }{subfigure.5.2}{}}
\@writefile{lof}{\contentsline {figure}{\numberline {5}{\ignorespaces O-MI/O-DF reference implementation analysis with respect to the standard specifications}}{}{figure.5}}
\newlabel{Fig:TL}{{5}{}{O-MI/O-DF reference implementation analysis with respect to the standard specifications}{figure.5}{}}
\@writefile{lof}{\contentsline {subfigure}{\numberline{(a)}{\ignorespaces { Traffic Load ($TL$) analysis}}}{}{figure.5}}
\@writefile{lof}{\contentsline {subfigure}{\numberline{(b)}{\ignorespaces { Traffic Load ($TL$) deviation analysis}}}{}{figure.5}}
\@writefile{toc}{\contentsline {section}{\numberline {V}Conclusion}{}{section.5}}
\bibcite{Evans2012}{1}
\bibcite{AlFuqaha2015}{2}
\bibcite{Ashton2000}{3}
\bibcite{Xu2014}{4}
\bibcite{He2014}{5}
\bibcite{Schneiderman2015}{6}
\bibcite{Colombo2013}{7}
\bibcite{Kim2013}{8}
\bibcite{RFC7452}{9}
\bibcite{OMI2014}{10}
\bibcite{ODF2014}{11}
\bibcite{Kiritsis2011}{12}
\bibcite{FramlingEAAI2013}{13}
\bibcite{FramlingIoT2014}{14}
\bibcite{Cassina2013}{15}
\bibcite{Han2014}{16}
\@writefile{toc}{\contentsline {section}{References}{}{section*.2}}
